{
  "images": [
    {
      "scale": "1x",
      "idiom": "iphone",
      "filename": "computing-cloud.png"
    },
    {
      "scale": "2x",
      "idiom": "iphone",
      "filename": "computing-cloud (1).png"
    },
    {
      "scale": "3x",
      "idiom": "iphone",
      "filename": "computing-cloud (2).png"
    },
    {
      "idiom": "iphone"
    }
  ],
  "properties": {
    "template-rendering-intent": "template"
  },
  "info": {
    "version": 1,
    "author": ""
  }
}