{
  "images": [
    {
      "scale": "1x",
      "idiom": "iphone",
      "filename": "home selected.png"
    },
    {
      "scale": "2x",
      "idiom": "iphone",
      "filename": "home selected (1).png"
    },
    {
      "scale": "3x",
      "idiom": "iphone",
      "filename": "home selected (2).png"
    },
    {
      "idiom": "iphone"
    }
  ],
  "properties": {
    "template-rendering-intent": "original"
  },
  "info": {
    "version": 1,
    "author": ""
  }
}